{
	"info": {
		"_type": "scene",
		"width": 100,
		"height": 100
	},
	
	"nodes": [
		{
		    "__comment": "** Node ?",
		    
			"type": "tree",
			"name": "tree1",
			"pos": [0, 0, 0],

			"def_path": "res/objects/tree1"
		},
		{
			"type": "tree",
			"name": "tree2",
			"pos": [10, 0, 0],

			"def_path": "res/objects/tree2"
		},
		{
			"type": "tree",
			"name": "tree3",
			"pos": [20, 20, 0],

			"def_path": "res/objects/tree1"
		},
		{
			"type": "tree",
			"name": "concrete_stone1",
			"pos": [30, 50, 0],
			"visible": true,

			"def_path": "res/objects/concrete_stone1"
		},

		{
			"type": "tree",
			"node_type": "image_node",
			"name": "tree5",
			"description": "test 2d / sprite node",
			"pos": [5, 5, 0],

			"def_path": "res/objects/tree2"
		},
		{
			"type": "tree",
			"node_type": "mesh_node",
			"name": "tree6",
			"description": "test 3d / mesh node",
			"pos": [5, 5, 0],
			"rot": [0, 0, 90],

			"def_path": "res/objects/tree3_mesh"
		},
		
		{
			"type": "building",

			"name": "building2",
			"description": "",
			
			"pos": [10, 0, 0],			
			"rot": [0, 0, 0]

		}
	]
}
