{
	"_type": "scene",
	"_id": "71154684-bc35-4b7d-8c29-0165463e23e6",

	"info": {
		"_type": "scene",

		"format": "map_f",
		"format_version": [0, 0, 0],
		
		"width": 100,
		"height": 100
	},
	
	"__comment": "// Mesh library",
	"meshes": [
		{
			"__comment": "// Object / mesh id",
			"__comment": "// id0",
			"__index": 0,
			"_id": "f2386208-bf49-4df4-a5fc-56aef3c88074",
			"__path":"res/objects/tree1/tree1_no_mat.glb",
			"mesh":"res/objects/tree1/tree1_no_mat.glb"
		}
	],
	
	"nodes": [
		{
			"__comment": "** Node ?",

			"_id": "2c0b5fbd-e1b0-44cb-96bf-ef5e2fff1a6a",
			"_type": "scene_node",
			"node_type": "mesh",
			"name": "tree1",
			"pos": [0, 0, 0],

			"__comment": "// mesh_id_0",
			"__path_c": "res/objects/tree1/tree1_no_mat.glb",
			"mesh_id": "f2386208-bf49-4df4-a5fc-56aef3c88074"
		},
		{
			"_id": "f024a138-7c48-47de-b081-4e49446cd36a",
			"_type": "scene_node",
			"node_type": "object",
			"name": "tree2",
			"pos": [10, 0, 0],

			"mesh_id": "f2386208-bf49-4df4-a5fc-56aef3c88074"
		},
		{
			"_id": "9f6d5ec3-4463-4806-a60b-e97c18ec944a",
			"_type": "scene_node",
			"node_type": "mesh",
			"name": "tree3",
			"pos": [20, 20, 0],

			"mesh_id": "f2386208-bf49-4df4-a5fc-56aef3c88074"
		},
		{
			"_id": "da4dc7ac-a06e-424f-adf5-c3f84eefd539",
			"_type": "scene_node",
			"node_type": "mesh",
			"name": "concrete_stone1",
			"pos": [30, 50, 0],
			"visible": true,

			"mesh_id": "f2386208-bf49-4df4-a5fc-56aef3c88074"
		},
		{
			"_id": "1e2a847e-795b-4f11-b7b7-85c570c1bd62",
			"_type": "scene_node",
			"node_type": "mesh",
			"type": "tree",
			"name": "tree6",
			"description": "test 3d / mesh node",
			"pos": [5, 5, 0],
			"rot": [0, 0, 90],

			"mesh_id": "f2386208-bf49-4df4-a5fc-56aef3c88074"
		}		
	]
}
