{
	"sprites": [
		{
			"path": "img1.png",
			"pos": [0, 0],
			"node_id": "?",
			"object_id": "?"
		},
		{
			"path": "img2.png",
			"pos": [50, 50],
			"hideable": true
		},
		{
			"path": "img1.png",
			"pos": [100, 100],
			"node_id": "ce3db93d-a9f8-4af0-8d57-5c9d249d1355",
			"object_id": "c464c999-7677-475c-806a-2a372ece55ee",
			"object_name": "tree1"
		},
		{
			"path": "img1.png",
			"pos": [200, 200]
		}
	]
}
