{
	"_type": "scene",
	"_id": "71154684-bc35-4b7d-8c29-0165463e23e6",

	"info": {
		"_type": "scene",

		"format": "map_f",
		"format_version": [0, 0, 0],
		
		"width": 100,
		"height": 100
	},

	"modifiers": [
		{
			"type": "array",
			"clone_dir": "+x",
			"clone_step": [10, 0, 0],
			"amount": 10,
			"node_id": "2c0b5fbd-e1b0-44cb-96bf-ef5e2fff1a6a",
			"enabled": true
		},
		{
			"type": "array",
			"clone_step": [0, 10, 0],
			"amount": 10,
			"node_id": "2c0b5fbd-e1b0-44cb-96bf-ef5e2fff1a6a",
			"enabled": true
		}
	],
	
	
	"meshes": [
		{
			"_id": "f2386208-bf49-4df4-a5fc-56aef3c88074",
			"mesh_gen": {
				"type": "cube",
				"size": [100, 100, 1],

				"color": [0, 0, 255]
			}
		}
	],
	
	"nodes": [
		{
			"_id": "2c0b5fbd-e1b0-44cb-96bf-ef5e2fff1a6a",
			"_type": "scene_node",
			"node_type": "mesh",
			"name": "test1",
			"pos": [0, 0, 0],

			"mesh_id": "f2386208-bf49-4df4-a5fc-56aef3c88074"
		}
	]
}
