{
	"_type": "scene",
	"_id": "71154684-bc35-4b7d-8c29-0165463e23e6",

	"info": {
		"_type": "scene",
		"width": 100,
		"height": 100
	},
	
	"nodes": [
		{
		    "__comment": "** Node ?",

		    "_id": "2c0b5fbd-e1b0-44cb-96bf-ef5e2fff1a6a",
			"_type": "scene_node",
			"node_type": "mesh",
			"type": "tree",
			"name": "tree1",
			"pos": [0, 0, 0],

			"def_path": "res/objects/tree1",
			"mesh": "res/objects/tree1/tree1_no_mat.gdb"
		},
		{
			"_id": "f024a138-7c48-47de-b081-4e49446cd36a",
			"_type": "scene_node",
			"node_type": "object",
			"type": "tree",
			"name": "tree2",
			"pos": [10, 0, 0],

			"def_path": "res/objects/tree2"
		},
		{
			"_id": "9f6d5ec3-4463-4806-a60b-e97c18ec944a",
			"_type": "scene_node",
			"node_type": "mesh",
			"type": "tree",
			"name": "tree3",
			"pos": [20, 20, 0],

			"def_path": "res/objects/tree1"
		},
		{
			"_id": "da4dc7ac-a06e-424f-adf5-c3f84eefd539",
			"_type": "scene_node",
			"node_type": "mesh",
			"type": "tree",
			"name": "concrete_stone1",
			"pos": [30, 50, 0],
			"visible": true,

			"def_path": "res/objects/concrete_stone1"
		},

		{
			"_id": "113bad7e-d22a-41f7-bc01-db169848e803",
			"_type": "scene",
			"__node_type": "image_node",
			"node_type": "image",
			"type": "tree",
			"name": "tree5",
			"description": "test 2d / sprite node",
			"pos": [5, 5, 0],

			"def_path": "res/objects/tree2"
		},
		{
			"_id": "1e2a847e-795b-4f11-b7b7-85c570c1bd62",
			"_type": "scene_node",
			"node_type": "mesh",
			"type": "tree",
			"name": "tree6",
			"description": "test 3d / mesh node",
			"pos": [5, 5, 0],
			"rot": [0, 0, 90],

			"def_path": "res/objects/tree3_mesh"
		},
		{
			"_id": "d5a79882-e0c8-457e-bbf6-8d7ebb774483",
			"_type": "scene",
			"node_type": "scene",
			"type": "scene",
			"name": "test sub scene",
			"description": "test subscene node",
			"pos": [5, 5, 0],
			"__rot": [0, 0, 90],

			"def_path": "res/scenes/test_subscene"
		},
		
		{
			"type": "building",

			"name": "building2",
			"description": "",
			
			"pos": [10, 0, 0],			
			"rot": [0, 0, 0]

		}
	]
}
