{
	"_type": "scene",
	"_id": "71154684-bc35-4b7d-8c29-0165463e23e6",

	"info": {
		"_type": "scene",

		"format": "map_f",
		"format_version": [0, 0, 0],
		
		"width": 100,
		"height": 100
	},
	
	"meshes": [
		{
			"_id": "f2386208-bf49-4df4-a5fc-56aef3c88074",
			"mesh":"testdata/cube_gltf1/cube1.glb",
			"__mesh":"testdata/test1_gltf/untitled.gltf",
			"__mesh":"testdata/cube_gltf1/Cube.gltf"
		}
	],
	
	"nodes": [
		{
			"_id": "2c0b5fbd-e1b0-44cb-96bf-ef5e2fff1a6a",
			"_type": "scene_node",
			"node_type": "mesh",
			"name": "test1",
			"pos": [0, 0, 0],

			"mesh_id": "f2386208-bf49-4df4-a5fc-56aef3c88074"
		},
		{
			"_id": "f024a138-7c48-47de-b081-4e49446cd36a",
			"_type": "scene_node",
			"node_type": "object",
			"name": "test2",
			"pos": [10, 0, 0],
			
			"visible": "false",

			"mesh_id": "f2386208-bf49-4df4-a5fc-56aef3c88074"
		}
	]
}
