{
	"modifiers": [
		{
			"type": "array",
			"clone_dir": "+x",
			"clone_step": [10, 0, 0],
			"amount": 10,
			"node_id": "743a0046-9b4a-4a5f-9d61-1d8ad9211734",
			"enabled": true,
		},
		{
			"type": "array",
			"clone_step": [0, 10, 0],
			"amount": 10,
			"node_id": "743a0046-9b4a-4a5f-9d61-1d8ad9211734",
			"enabled": true,
		}
	],
	
	"nodes": [
		{
		    "id": "743a0046-9b4a-4a5f-9d61-1d8ad9211734",
			"type": "building",
			"pos": [0, 0, 0]
		},
		{
			"type": "building",

			"name": "building2",
			"description": "",
			
			"pos": [10, 0, 0],			
			"rot": [0, 0, 0]

		}
	]
}
