scale = 4.0

res = 512,512

+----+
|    |
| ## |
| ## |
|    |
|1234|
+----+


size 1m2 = 512/4 = 128 px


scale1 = 512/2 = 512 (?)

8 sc = 512/8 = 64 ?


100 / ? m =

sc4 / 4m = 128x4 = 512 px
sc4 / 100m = 128x100 = 12800 px
? sc8 / 100m = 64x100 = 64000 px

sc128 / 100m = 4x100 = 400 px
=
sc10 = 10m ?
sc/100m = sc100 (?)
