module test/object_renderer/render_backend/backend

go 1.20

replace test/object_renderer/render_backend/common => ../common

require test/object_renderer/render_backend/common v0.0.0-00010101000000-000000000000
