# Blender 3.6.0 MTL File: 'tree1.blend'
# www.blender.org

newmtl Material.008
Ns 250.000000
Ka 1.000000 1.000000 1.000000
Kd 0.896442 0.881170 0.206801
Ks 0.500000 0.500000 0.500000
Ke 0.000000 0.000000 0.000000
Ni 1.000000
d 1.000000
illum 2

newmtl Material.009
Ns 250.000000
Ka 1.000000 1.000000 1.000000
Kd 0.130963 0.757213 0.034068
Ks 0.000000 0.000000 0.000000
Ke 0.000000 0.000000 0.000000
Ni 1.000000
d 1.000000
illum 1
